Project/FSM/transcript
# vsim -c controller_tb -do "run -all;" 
# Start time: 21:42:59 on Mar 18,2018
# ** Note: (vsim-3812) Design is being optimized...
# //  Questa Sim-64
# //  Version 10.4c linux_x86_64 Jul 19 2015
# //
# //  Copyright 1991-2015 Mentor Graphics Corporation
# //  All Rights Reserved.
# //
# //  THIS WORK CONTAINS TRADE SECRET AND PROPRIETARY INFORMATION
# //  WHICH IS THE PROPERTY OF MENTOR GRAPHICS CORPORATION OR ITS
# //  LICENSORS AND IS SUBJECT TO LICENSE TERMS.
# //  THIS DOCUMENT CONTAINS TRADE SECRETS AND COMMERCIAL OR FINANCIAL
# //  INFORMATION THAT ARE PRIVILEGED, CONFIDENTIAL, AND EXEMPT FROM
# //  DISCLOSURE UNDER THE FREEDOM OF INFORMATION ACT, 5 U.S.C. SECTION 552.
# //  FURTHERMORE, THIS INFORMATION IS PROHIBITED FROM DISCLOSURE UNDER
# //  THE TRADE SECRETS ACT, 18 U.S.C. SECTION 1905.
# //
# Loading sv_std.std
# Loading work.verifclass(fast)
# Loading work.controller_tb(fast)
# Loading work.DDR4Interface(fast__1)
# Loading work.FSM_wrapper(fast)
# Loading work.MemContFSM(fast)
# Loading work.Memory(fast)
# Loading work.MemoryFSM(fast)
# Loading work.ControllerIF(fast__1)
# Loading work.ControllerIF(fast)
# run -all
#                    0	controller_tb.dut.F	 STATE: Reset
#                    0	MRS
#                    0	controller_tb.dut.F	 STATE: Reset
#                    0	MRS
#                    0	DataBus:xxxxxxxxxxxxxxxx
#                    5	DataBus:zzzzzzzzzzzzzzzz
#                  200	controller_tb.dut.F	 STATE: Reset
#                  200	MRS
#                  220	controller_tb.dut.F	 STATE: LoadTimer
#                  240	Request Issued to Address:00dbc540	 DONE=0
# 
#                  240	controller_tb.dut.F	 STATE: Activate
#                  240	ACTIVATE	Row Address:000000001101101
#                  260	ROW:000000001101101	BANK:3	BG:1
#                  260	controller_tb.dut.F	 STATE: Wait
#                  260	DESELECT
#                  280	controller_tb.dut.F	 STATE: Wait
#                  280	DESELECT
#                  560	controller_tb.dut.F	 STATE: Write
#                  560	WRITE
# TRCD=         16
# tccd:         29	bgprev=x	bg=1
#                  580	The cloumn address read is: 1000101100
# Address Calculated:00dbc540
# 
#                  580	controller_tb.dut.F	 STATE: Done
#                  580	DESELECT
#                  600	controller_tb.dut.F	 STATE: Done
#                  600	DESELECT
#                  600	controller_tb.dut.F	 STATE: Done
#                  600	DESELECT
#                  620	controller_tb.dut.F	 STATE: LoadTimer
#                  640	Request Issued to Address:00e61480	 DONE=0
# 
#                  640	controller_tb.dut.F	 STATE: Activate
#                  640	ACTIVATE	Row Address:000000001110011
#                  660	ROW:000000001110011	BANK:0	BG:2
#                  660	controller_tb.dut.F	 STATE: Wait
#                  660	DESELECT
#                  680	controller_tb.dut.F	 STATE: Wait
#                  680	DESELECT
#                  885	controller_tb.dut.F.WC	count=0
#                  885	DataBus:0000000000000045
#                  885	controller_tb.dut.F.WC	WRITE	DataHost is:0000000000000045	DataBus is:0000000000000045
#                  890	controller_tb.mem.RM	count=0
#                  890	controller_tb.mem.RM	READ	DataBus is:0000000000000045	DataHost is:zzzzzzzzzzzzzzzzzzzzzzzzzzzzzzzzzzzzzzzzzzzzzzzzzzzzzzzzzzzzzzzzzzzzzzzzzzzzzzzzzzzzzzzzzzzzzzzzzzzzzzzzzzzzzzzz0000000000000045	count=1
#                  895	controller_tb.dut.F.WC	count=1
#                  895	DataBus:0000000000000000
#                  895	controller_tb.dut.F.WC	WRITE	DataHost is:0000000000000000	DataBus is:0000000000000000
#                  900	controller_tb.mem.RM	count=1
#                  900	controller_tb.mem.RM	READ	DataBus is:0000000000000000	DataHost is:zzzzzzzzzzzzzzzzzzzzzzzzzzzzzzzzzzzzzzzzzzzzzzzzzzzzzzzzzzzzzzzzzzzzzzzzzzzzzzzzzzzzzzzzzzzzzzzz00000000000000000000000000000045	count=2
#                  905	controller_tb.dut.F.WC	count=2
#                  905	controller_tb.dut.F.WC	WRITE	DataHost is:0000000000000000	DataBus is:0000000000000000
#                  910	controller_tb.mem.RM	count=2
#                  910	controller_tb.mem.RM	READ	DataBus is:0000000000000000	DataHost is:zzzzzzzzzzzzzzzzzzzzzzzzzzzzzzzzzzzzzzzzzzzzzzzzzzzzzzzzzzzzzzzzzzzzzzzzzzzzzzzz000000000000000000000000000000000000000000000045	count=3
#                  915	controller_tb.dut.F.WC	count=3
#                  915	controller_tb.dut.F.WC	WRITE	DataHost is:0000000000000000	DataBus is:0000000000000000
#                  920	controller_tb.mem.RM	count=3
#                  920	controller_tb.mem.RM	READ	DataBus is:0000000000000000	DataHost is:zzzzzzzzzzzzzzzzzzzzzzzzzzzzzzzzzzzzzzzzzzzzzzzzzzzzzzzzzzzzzzzz0000000000000000000000000000000000000000000000000000000000000045	count=4
#                  925	controller_tb.dut.F.WC	count=4
#                  925	controller_tb.dut.F.WC	WRITE	DataHost is:0000000000000000	DataBus is:0000000000000000
#                  930	controller_tb.mem.RM	count=4
#                  930	controller_tb.mem.RM	READ	DataBus is:0000000000000000	DataHost is:zzzzzzzzzzzzzzzzzzzzzzzzzzzzzzzzzzzzzzzzzzzzzzzz00000000000000000000000000000000000000000000000000000000000000000000000000000045	count=5
#                  935	controller_tb.dut.F.WC	count=5
#                  935	controller_tb.dut.F.WC	WRITE	DataHost is:0000000000000000	DataBus is:0000000000000000
#                  940	controller_tb.mem.RM	count=5
#                  940	controller_tb.mem.RM	READ	DataBus is:0000000000000000	DataHost is:zzzzzzzzzzzzzzzzzzzzzzzzzzzzzzzz000000000000000000000000000000000000000000000000000000000000000000000000000000000000000000000045	count=6
#                  945	controller_tb.dut.F.WC	count=6
#                  945	controller_tb.dut.F.WC	WRITE	DataHost is:0000000000000000	DataBus is:0000000000000000
#                  950	controller_tb.mem.RM	count=6
#                  950	controller_tb.mem.RM	READ	DataBus is:0000000000000000	DataHost is:zzzzzzzzzzzzzzzz0000000000000000000000000000000000000000000000000000000000000000000000000000000000000000000000000000000000000045	count=7
#                  955	controller_tb.dut.F.WC	count=7
#                  955	controller_tb.dut.F.WC	WRITE	DataHost is:0000000000000000	DataBus is:0000000000000000
#                  960	controller_tb.mem.RM	count=7
#                  960	controller_tb.dut.F	 STATE: Write
#                  960	WRITE
#                  960	controller_tb.mem.RM	READ	DataBus is:0000000000000000	DataHost is:00000000000000000000000000000000000000000000000000000000000000000000000000000000000000000000000000000000000000000000000000000045	count=0
#                  965	DataBus:zzzzzzzzzzzzzzzz
# TRCD=         16
# tccd:         20	bgprev=1	bg=2
#                  980	The cloumn address read is: 0010100100
# Address Calculated:00e61480
# 
#                  980	controller_tb.dut.F	 STATE: Done
#                  980	DESELECT
#                 1000	controller_tb.dut.F	 STATE: Done
#                 1000	DESELECT
#                 1000	controller_tb.dut.F	 STATE: Done
#                 1000	DESELECT
#                 1020	controller_tb.dut.F	 STATE: LoadTimer
#                 1040	Request Issued to Address:005c6540	 DONE=0
# 
#                 1040	controller_tb.dut.F	 STATE: Activate
#                 1040	ACTIVATE	Row Address:000000000101110
#                 1060	ROW:000000000101110	BANK:0	BG:1
#                 1060	controller_tb.dut.F	 STATE: Wait
#                 1060	DESELECT
#                 1080	controller_tb.dut.F	 STATE: Wait
#                 1080	DESELECT
#                 1285	controller_tb.dut.F.WC	count=0
#                 1285	DataBus:000000000000001b
#                 1285	controller_tb.dut.F.WC	WRITE	DataHost is:000000000000001b	DataBus is:000000000000001b
#                 1290	controller_tb.mem.RM	count=0
#                 1290	controller_tb.mem.RM	READ	DataBus is:000000000000001b	DataHost is:0000000000000000000000000000000000000000000000000000000000000000000000000000000000000000000000000000000000000000000000000000001b	count=1
#                 1295	controller_tb.dut.F.WC	count=1
#                 1295	DataBus:0000000000000000
#                 1295	controller_tb.dut.F.WC	WRITE	DataHost is:0000000000000000	DataBus is:0000000000000000
#                 1300	controller_tb.mem.RM	count=1
#                 1300	controller_tb.mem.RM	READ	DataBus is:0000000000000000	DataHost is:0000000000000000000000000000000000000000000000000000000000000000000000000000000000000000000000000000000000000000000000000000001b	count=2
#                 1305	controller_tb.dut.F.WC	count=2
#                 1305	controller_tb.dut.F.WC	WRITE	DataHost is:0000000000000000	DataBus is:0000000000000000
#                 1310	controller_tb.mem.RM	count=2
#                 1310	controller_tb.mem.RM	READ	DataBus is:0000000000000000	DataHost is:0000000000000000000000000000000000000000000000000000000000000000000000000000000000000000000000000000000000000000000000000000001b	count=3
#                 1315	controller_tb.dut.F.WC	count=3
#                 1315	controller_tb.dut.F.WC	WRITE	DataHost is:0000000000000000	DataBus is:0000000000000000
#                 1320	controller_tb.mem.RM	count=3
#                 1320	controller_tb.mem.RM	READ	DataBus is:0000000000000000	DataHost is:0000000000000000000000000000000000000000000000000000000000000000000000000000000000000000000000000000000000000000000000000000001b	count=4
#                 1325	controller_tb.dut.F.WC	count=4
#                 1325	controller_tb.dut.F.WC	WRITE	DataHost is:0000000000000000	DataBus is:0000000000000000
#                 1330	controller_tb.mem.RM	count=4
#                 1330	controller_tb.mem.RM	READ	DataBus is:0000000000000000	DataHost is:0000000000000000000000000000000000000000000000000000000000000000000000000000000000000000000000000000000000000000000000000000001b	count=5
#                 1335	controller_tb.dut.F.WC	count=5
#                 1335	controller_tb.dut.F.WC	WRITE	DataHost is:0000000000000000	DataBus is:0000000000000000
#                 1340	controller_tb.mem.RM	count=5
#                 1340	controller_tb.mem.RM	READ	DataBus is:0000000000000000	DataHost is:0000000000000000000000000000000000000000000000000000000000000000000000000000000000000000000000000000000000000000000000000000001b	count=6
#                 1345	controller_tb.dut.F.WC	count=6
#                 1345	controller_tb.dut.F.WC	WRITE	DataHost is:0000000000000000	DataBus is:0000000000000000
#                 1350	controller_tb.mem.RM	count=6
#                 1350	controller_tb.mem.RM	READ	DataBus is:0000000000000000	DataHost is:0000000000000000000000000000000000000000000000000000000000000000000000000000000000000000000000000000000000000000000000000000001b	count=7
#                 1355	controller_tb.dut.F.WC	count=7
#                 1355	controller_tb.dut.F.WC	WRITE	DataHost is:0000000000000000	DataBus is:0000000000000000
#                 1360	controller_tb.mem.RM	count=7
#                 1360	controller_tb.dut.F	 STATE: Write
#                 1360	WRITE
#                 1360	controller_tb.mem.RM	READ	DataBus is:0000000000000000	DataHost is:0000000000000000000000000000000000000000000000000000000000000000000000000000000000000000000000000000000000000000000000000000001b	count=0
#                 1365	DataBus:zzzzzzzzzzzzzzzz
# TRCD=         16
# tccd:         20	bgprev=2	bg=1
#                 1380	The cloumn address read is: 1100101100
# Address Calculated:005c6540
# 
#                 1380	controller_tb.dut.F	 STATE: Done
#                 1380	DESELECT
#                 1400	controller_tb.dut.F	 STATE: Done
#                 1400	DESELECT
#                 1400	controller_tb.dut.F	 STATE: Done
#                 1400	DESELECT
#                 1420	controller_tb.dut.F	 STATE: LoadTimer
#                 1440	Request Issued to Address:00b0f300	 DONE=0
# 
#                 1440	controller_tb.dut.F	 STATE: Activate
#                 1440	ACTIVATE	Row Address:000000001011000
#                 1460	ROW:000000001011000	BANK:1	BG:0
#                 1460	controller_tb.dut.F	 STATE: Wait
#                 1460	DESELECT
#                 1480	controller_tb.dut.F	 STATE: Wait
#                 1480	DESELECT
#                 1685	controller_tb.dut.F.WC	count=0
#                 1685	DataBus:0000000000000046
#                 1685	controller_tb.dut.F.WC	WRITE	DataHost is:0000000000000046	DataBus is:0000000000000046
#                 1690	controller_tb.mem.RM	count=0
#                 1690	controller_tb.mem.RM	READ	DataBus is:0000000000000046	DataHost is:00000000000000000000000000000000000000000000000000000000000000000000000000000000000000000000000000000000000000000000000000000046	count=1
#                 1695	controller_tb.dut.F.WC	count=1
#                 1695	DataBus:0000000000000000
#                 1695	controller_tb.dut.F.WC	WRITE	DataHost is:0000000000000000	DataBus is:0000000000000000
#                 1700	controller_tb.mem.RM	count=1
#                 1700	controller_tb.mem.RM	READ	DataBus is:0000000000000000	DataHost is:00000000000000000000000000000000000000000000000000000000000000000000000000000000000000000000000000000000000000000000000000000046	count=2
#                 1705	controller_tb.dut.F.WC	count=2
#                 1705	controller_tb.dut.F.WC	WRITE	DataHost is:0000000000000000	DataBus is:0000000000000000
#                 1710	controller_tb.mem.RM	count=2
#                 1710	controller_tb.mem.RM	READ	DataBus is:0000000000000000	DataHost is:00000000000000000000000000000000000000000000000000000000000000000000000000000000000000000000000000000000000000000000000000000046	count=3
#                 1715	controller_tb.dut.F.WC	count=3
#                 1715	controller_tb.dut.F.WC	WRITE	DataHost is:0000000000000000	DataBus is:0000000000000000
#                 1720	controller_tb.mem.RM	count=3
#                 1720	controller_tb.mem.RM	READ	DataBus is:0000000000000000	DataHost is:00000000000000000000000000000000000000000000000000000000000000000000000000000000000000000000000000000000000000000000000000000046	count=4
#                 1725	controller_tb.dut.F.WC	count=4
#                 1725	controller_tb.dut.F.WC	WRITE	DataHost is:0000000000000000	DataBus is:0000000000000000
#                 1730	controller_tb.mem.RM	count=4
#                 1730	controller_tb.mem.RM	READ	DataBus is:0000000000000000	DataHost is:00000000000000000000000000000000000000000000000000000000000000000000000000000000000000000000000000000000000000000000000000000046	count=5
#                 1735	controller_tb.dut.F.WC	count=5
#                 1735	controller_tb.dut.F.WC	WRITE	DataHost is:0000000000000000	DataBus is:0000000000000000
#                 1740	controller_tb.mem.RM	count=5
#                 1740	controller_tb.mem.RM	READ	DataBus is:0000000000000000	DataHost is:00000000000000000000000000000000000000000000000000000000000000000000000000000000000000000000000000000000000000000000000000000046	count=6
#                 1745	controller_tb.dut.F.WC	count=6
#                 1745	controller_tb.dut.F.WC	WRITE	DataHost is:0000000000000000	DataBus is:0000000000000000
#                 1750	controller_tb.mem.RM	count=6
#                 1750	controller_tb.mem.RM	READ	DataBus is:0000000000000000	DataHost is:00000000000000000000000000000000000000000000000000000000000000000000000000000000000000000000000000000000000000000000000000000046	count=7
#                 1755	controller_tb.dut.F.WC	count=7
#                 1755	controller_tb.dut.F.WC	WRITE	DataHost is:0000000000000000	DataBus is:0000000000000000
#                 1760	controller_tb.mem.RM	count=7
#                 1760	controller_tb.dut.F	 STATE: Write
#                 1760	WRITE
#                 1760	controller_tb.mem.RM	READ	DataBus is:0000000000000000	DataHost is:00000000000000000000000000000000000000000000000000000000000000000000000000000000000000000000000000000000000000000000000000000046	count=0
#                 1765	DataBus:zzzzzzzzzzzzzzzz
# TRCD=         16
# tccd:         20	bgprev=1	bg=0
#                 1780	The cloumn address read is: 1110011000
# Address Calculated:00b0f300
# 
#                 1780	controller_tb.dut.F	 STATE: Done
#                 1780	DESELECT
#                 1800	controller_tb.dut.F	 STATE: Done
#                 1800	DESELECT
#                 1800	controller_tb.dut.F	 STATE: Done
#                 1800	DESELECT
#                 1820	controller_tb.dut.F	 STATE: LoadTimer
#                 1840	Request Issued to Address:00e00880	 DONE=0
# 
#                 1840	controller_tb.dut.F	 STATE: Activate
#                 1840	ACTIVATE	Row Address:000000001110000
#                 1860	controller_tb.dut.F	 STATE: Wait
#                 1860	DESELECT
#                 1880	controller_tb.dut.F	 STATE: Wait
#                 1880	DESELECT
#                 2085	controller_tb.dut.F.WC	count=0
#                 2085	DataBus:0000000000000023
#                 2085	controller_tb.dut.F.WC	WRITE	DataHost is:0000000000000023	DataBus is:0000000000000023
#                 2090	controller_tb.mem.RM	count=0
#                 2090	controller_tb.mem.RM	READ	DataBus is:0000000000000023	DataHost is:00000000000000000000000000000000000000000000000000000000000000000000000000000000000000000000000000000000000000000000000000000023	count=1
#                 2095	controller_tb.dut.F.WC	count=1
#                 2095	DataBus:0000000000000000
#                 2095	controller_tb.dut.F.WC	WRITE	DataHost is:0000000000000000	DataBus is:0000000000000000
#                 2100	controller_tb.mem.RM	count=1
#                 2100	controller_tb.mem.RM	READ	DataBus is:0000000000000000	DataHost is:00000000000000000000000000000000000000000000000000000000000000000000000000000000000000000000000000000000000000000000000000000023	count=2
#                 2105	controller_tb.dut.F.WC	count=2
#                 2105	controller_tb.dut.F.WC	WRITE	DataHost is:0000000000000000	DataBus is:0000000000000000
#                 2110	controller_tb.mem.RM	count=2
#                 2110	controller_tb.mem.RM	READ	DataBus is:0000000000000000	DataHost is:00000000000000000000000000000000000000000000000000000000000000000000000000000000000000000000000000000000000000000000000000000023	count=3
#                 2115	controller_tb.dut.F.WC	count=3
#                 2115	controller_tb.dut.F.WC	WRITE	DataHost is:0000000000000000	DataBus is:0000000000000000
#                 2120	controller_tb.mem.RM	count=3
#                 2120	controller_tb.mem.RM	READ	DataBus is:0000000000000000	DataHost is:00000000000000000000000000000000000000000000000000000000000000000000000000000000000000000000000000000000000000000000000000000023	count=4
#                 2125	controller_tb.dut.F.WC	count=4
#                 2125	controller_tb.dut.F.WC	WRITE	DataHost is:0000000000000000	DataBus is:0000000000000000
#                 2130	controller_tb.mem.RM	count=4
#                 2130	controller_tb.mem.RM	READ	DataBus is:0000000000000000	DataHost is:00000000000000000000000000000000000000000000000000000000000000000000000000000000000000000000000000000000000000000000000000000023	count=5
#                 2135	controller_tb.dut.F.WC	count=5
#                 2135	controller_tb.dut.F.WC	WRITE	DataHost is:0000000000000000	DataBus is:0000000000000000
#                 2140	controller_tb.mem.RM	count=5
#                 2140	controller_tb.mem.RM	READ	DataBus is:0000000000000000	DataHost is:00000000000000000000000000000000000000000000000000000000000000000000000000000000000000000000000000000000000000000000000000000023	count=6
#                 2145	controller_tb.dut.F.WC	count=6
#                 2145	controller_tb.dut.F.WC	WRITE	DataHost is:0000000000000000	DataBus is:0000000000000000
#                 2150	controller_tb.mem.RM	count=6
#                 2150	controller_tb.mem.RM	READ	DataBus is:0000000000000000	DataHost is:00000000000000000000000000000000000000000000000000000000000000000000000000000000000000000000000000000000000000000000000000000023	count=7
#                 2155	controller_tb.dut.F.WC	count=7
#                 2155	controller_tb.dut.F.WC	WRITE	DataHost is:0000000000000000	DataBus is:0000000000000000
#                 2160	controller_tb.mem.RM	count=7
#                 2160	controller_tb.dut.F	 STATE: Write
#                 2160	WRITE
#                 2160	controller_tb.mem.RM	READ	DataBus is:0000000000000000	DataHost is:00000000000000000000000000000000000000000000000000000000000000000000000000000000000000000000000000000000000000000000000000000023	count=0
#                 2165	DataBus:zzzzzzzzzzzzzzzz
# TRCD=         16
# tccd:         20	bgprev=0	bg=2
#                 2180	The cloumn address read is: 0001000101
# Address Calculated:00e60880
# 
#                 2180	controller_tb.dut.F	 STATE: Done
#                 2180	DESELECT
#                 2200	controller_tb.dut.F	 STATE: Done
#                 2200	DESELECT
#                 2200	controller_tb.dut.F	 STATE: Done
#                 2200	DESELECT
#                 2220	controller_tb.dut.F	 STATE: LoadTimer
#                 2240	Request Issued to Address:0093da00	 DONE=0
# 
#                 2240	controller_tb.dut.F	 STATE: Activate
#                 2240	ACTIVATE	Row Address:000000001001001
#                 2260	ROW:000000001001001	BANK:3	BG:0
#                 2260	controller_tb.dut.F	 STATE: Wait
#                 2260	DESELECT
#                 2280	controller_tb.dut.F	 STATE: Wait
#                 2280	DESELECT
#                 2485	controller_tb.dut.F.WC	count=0
#                 2485	DataBus:0000000000000062
#                 2485	controller_tb.dut.F.WC	WRITE	DataHost is:0000000000000062	DataBus is:0000000000000062
#                 2490	controller_tb.mem.RM	count=0
#                 2490	controller_tb.mem.RM	READ	DataBus is:0000000000000062	DataHost is:00000000000000000000000000000000000000000000000000000000000000000000000000000000000000000000000000000000000000000000000000000062	count=1
#                 2495	controller_tb.dut.F.WC	count=1
#                 2495	DataBus:0000000000000000
#                 2495	controller_tb.dut.F.WC	WRITE	DataHost is:0000000000000000	DataBus is:0000000000000000
#                 2500	controller_tb.mem.RM	count=1
#                 2500	controller_tb.mem.RM	READ	DataBus is:0000000000000000	DataHost is:00000000000000000000000000000000000000000000000000000000000000000000000000000000000000000000000000000000000000000000000000000062	count=2
#                 2505	controller_tb.dut.F.WC	count=2
#                 2505	controller_tb.dut.F.WC	WRITE	DataHost is:0000000000000000	DataBus is:0000000000000000
#                 2510	controller_tb.mem.RM	count=2
#                 2510	controller_tb.mem.RM	READ	DataBus is:0000000000000000	DataHost is:00000000000000000000000000000000000000000000000000000000000000000000000000000000000000000000000000000000000000000000000000000062	count=3
#                 2515	controller_tb.dut.F.WC	count=3
#                 2515	controller_tb.dut.F.WC	WRITE	DataHost is:0000000000000000	DataBus is:0000000000000000
#                 2520	controller_tb.mem.RM	count=3
#                 2520	controller_tb.mem.RM	READ	DataBus is:0000000000000000	DataHost is:00000000000000000000000000000000000000000000000000000000000000000000000000000000000000000000000000000000000000000000000000000062	count=4
#                 2525	controller_tb.dut.F.WC	count=4
#                 2525	controller_tb.dut.F.WC	WRITE	DataHost is:0000000000000000	DataBus is:0000000000000000
#                 2530	controller_tb.mem.RM	count=4
#                 2530	controller_tb.mem.RM	READ	DataBus is:0000000000000000	DataHost is:00000000000000000000000000000000000000000000000000000000000000000000000000000000000000000000000000000000000000000000000000000062	count=5
#                 2535	controller_tb.dut.F.WC	count=5
#                 2535	controller_tb.dut.F.WC	WRITE	DataHost is:0000000000000000	DataBus is:0000000000000000
#                 2540	controller_tb.mem.RM	count=5
#                 2540	controller_tb.mem.RM	READ	DataBus is:0000000000000000	DataHost is:00000000000000000000000000000000000000000000000000000000000000000000000000000000000000000000000000000000000000000000000000000062	count=6
#                 2545	controller_tb.dut.F.WC	count=6
#                 2545	controller_tb.dut.F.WC	WRITE	DataHost is:0000000000000000	DataBus is:0000000000000000
#                 2550	controller_tb.mem.RM	count=6
#                 2550	controller_tb.mem.RM	READ	DataBus is:0000000000000000	DataHost is:00000000000000000000000000000000000000000000000000000000000000000000000000000000000000000000000000000000000000000000000000000062	count=7
#                 2555	controller_tb.dut.F.WC	count=7
#                 2555	controller_tb.dut.F.WC	WRITE	DataHost is:0000000000000000	DataBus is:0000000000000000
#                 2560	controller_tb.mem.RM	count=7
#                 2560	controller_tb.dut.F	 STATE: Write
#                 2560	WRITE
#                 2560	controller_tb.mem.RM	READ	DataBus is:0000000000000000	DataHost is:00000000000000000000000000000000000000000000000000000000000000000000000000000000000000000000000000000000000000000000000000000062	count=0
#                 2565	DataBus:zzzzzzzzzzzzzzzz
# TRCD=         16
# tccd:         20	bgprev=2	bg=0
#                 2580	The cloumn address read is: 1011010001
# Address Calculated:0093da00
# 
#                 2580	controller_tb.dut.F	 STATE: Done
#                 2580	DESELECT
#                 2600	controller_tb.dut.F	 STATE: Done
#                 2600	DESELECT
#                 2600	controller_tb.dut.F	 STATE: Done
#                 2600	DESELECT
#                 2620	controller_tb.dut.F	 STATE: LoadTimer
#                 2640	Request Issued to Address:00d1ecc0	 DONE=0
# 
#                 2640	controller_tb.dut.F	 STATE: Activate
#                 2640	ACTIVATE	Row Address:000000001101000
#                 2660	ROW:000000001101000	BANK:3	BG:3
#                 2660	controller_tb.dut.F	 STATE: Wait
#                 2660	DESELECT
#                 2680	controller_tb.dut.F	 STATE: Wait
#                 2680	DESELECT
#                 2885	controller_tb.dut.F.WC	count=0
#                 2885	DataBus:0000000000000061
#                 2885	controller_tb.dut.F.WC	WRITE	DataHost is:0000000000000061	DataBus is:0000000000000061
#                 2890	controller_tb.mem.RM	count=0
#                 2890	controller_tb.mem.RM	READ	DataBus is:0000000000000061	DataHost is:00000000000000000000000000000000000000000000000000000000000000000000000000000000000000000000000000000000000000000000000000000061	count=1
#                 2895	controller_tb.dut.F.WC	count=1
#                 2895	DataBus:0000000000000000
#                 2895	controller_tb.dut.F.WC	WRITE	DataHost is:0000000000000000	DataBus is:0000000000000000
#                 2900	controller_tb.mem.RM	count=1
#                 2900	controller_tb.mem.RM	READ	DataBus is:0000000000000000	DataHost is:00000000000000000000000000000000000000000000000000000000000000000000000000000000000000000000000000000000000000000000000000000061	count=2
#                 2905	controller_tb.dut.F.WC	count=2
#                 2905	controller_tb.dut.F.WC	WRITE	DataHost is:0000000000000000	DataBus is:0000000000000000
#                 2910	controller_tb.mem.RM	count=2
#                 2910	controller_tb.mem.RM	READ	DataBus is:0000000000000000	DataHost is:00000000000000000000000000000000000000000000000000000000000000000000000000000000000000000000000000000000000000000000000000000061	count=3
#                 2915	controller_tb.dut.F.WC	count=3
#                 2915	controller_tb.dut.F.WC	WRITE	DataHost is:0000000000000000	DataBus is:0000000000000000
#                 2920	controller_tb.mem.RM	count=3
#                 2920	controller_tb.mem.RM	READ	DataBus is:0000000000000000	DataHost is:00000000000000000000000000000000000000000000000000000000000000000000000000000000000000000000000000000000000000000000000000000061	count=4
#                 2925	controller_tb.dut.F.WC	count=4
#                 2925	controller_tb.dut.F.WC	WRITE	DataHost is:0000000000000000	DataBus is:0000000000000000
#                 2930	controller_tb.mem.RM	count=4
#                 2930	controller_tb.mem.RM	READ	DataBus is:0000000000000000	DataHost is:00000000000000000000000000000000000000000000000000000000000000000000000000000000000000000000000000000000000000000000000000000061	count=5
#                 2935	controller_tb.dut.F.WC	count=5
#                 2935	controller_tb.dut.F.WC	WRITE	DataHost is:0000000000000000	DataBus is:0000000000000000
#                 2940	controller_tb.mem.RM	count=5
#                 2940	controller_tb.mem.RM	READ	DataBus is:0000000000000000	DataHost is:00000000000000000000000000000000000000000000000000000000000000000000000000000000000000000000000000000000000000000000000000000061	count=6
#                 2945	controller_tb.dut.F.WC	count=6
#                 2945	controller_tb.dut.F.WC	WRITE	DataHost is:0000000000000000	DataBus is:0000000000000000
#                 2950	controller_tb.mem.RM	count=6
#                 2950	controller_tb.mem.RM	READ	DataBus is:0000000000000000	DataHost is:00000000000000000000000000000000000000000000000000000000000000000000000000000000000000000000000000000000000000000000000000000061	count=7
#                 2955	controller_tb.dut.F.WC	count=7
#                 2955	controller_tb.dut.F.WC	WRITE	DataHost is:0000000000000000	DataBus is:0000000000000000
#                 2960	controller_tb.mem.RM	count=7
#                 2960	controller_tb.dut.F	 STATE: Write
#                 2960	WRITE
#                 2960	controller_tb.mem.RM	READ	DataBus is:0000000000000000	DataHost is:00000000000000000000000000000000000000000000000000000000000000000000000000000000000000000000000000000000000000000000000000000061	count=0
#                 2965	DataBus:zzzzzzzzzzzzzzzz
# TRCD=         16
# tccd:         20	bgprev=0	bg=3
#                 2980	The cloumn address read is: 1101100001
# Address Calculated:00d1ecc0
# 
#                 2980	controller_tb.dut.F	 STATE: Done
#                 2980	DESELECT
#                 3000	controller_tb.dut.F	 STATE: Done
#                 3000	DESELECT
#                 3000	controller_tb.dut.F	 STATE: Done
#                 3000	DESELECT
#                 3020	controller_tb.dut.F	 STATE: LoadTimer
#                 3040	Request Issued to Address:0084fa00	 DONE=0
# 
#                 3040	controller_tb.dut.F	 STATE: Activate
#                 3040	ACTIVATE	Row Address:000000001000010
#                 3060	controller_tb.dut.F	 STATE: Wait
#                 3060	DESELECT
#                 3080	controller_tb.dut.F	 STATE: Wait
#                 3080	DESELECT
#                 3285	controller_tb.dut.F.WC	count=0
#                 3285	DataBus:000000000000000c
#                 3285	controller_tb.dut.F.WC	WRITE	DataHost is:000000000000000c	DataBus is:000000000000000c
#                 3290	controller_tb.mem.RM	count=0
#                 3290	controller_tb.mem.RM	READ	DataBus is:000000000000000c	DataHost is:0000000000000000000000000000000000000000000000000000000000000000000000000000000000000000000000000000000000000000000000000000000c	count=1
#                 3295	controller_tb.dut.F.WC	count=1
#                 3295	DataBus:0000000000000000
#                 3295	controller_tb.dut.F.WC	WRITE	DataHost is:0000000000000000	DataBus is:0000000000000000
#                 3300	controller_tb.mem.RM	count=1
#                 3300	controller_tb.mem.RM	READ	DataBus is:0000000000000000	DataHost is:0000000000000000000000000000000000000000000000000000000000000000000000000000000000000000000000000000000000000000000000000000000c	count=2
#                 3305	controller_tb.dut.F.WC	count=2
#                 3305	controller_tb.dut.F.WC	WRITE	DataHost is:0000000000000000	DataBus is:0000000000000000
#                 3310	controller_tb.mem.RM	count=2
#                 3310	controller_tb.mem.RM	READ	DataBus is:0000000000000000	DataHost is:0000000000000000000000000000000000000000000000000000000000000000000000000000000000000000000000000000000000000000000000000000000c	count=3
#                 3315	controller_tb.dut.F.WC	count=3
#                 3315	controller_tb.dut.F.WC	WRITE	DataHost is:0000000000000000	DataBus is:0000000000000000
#                 3320	controller_tb.mem.RM	count=3
#                 3320	controller_tb.mem.RM	READ	DataBus is:0000000000000000	DataHost is:0000000000000000000000000000000000000000000000000000000000000000000000000000000000000000000000000000000000000000000000000000000c	count=4
#                 3325	controller_tb.dut.F.WC	count=4
#                 3325	controller_tb.dut.F.WC	WRITE	DataHost is:0000000000000000	DataBus is:0000000000000000
#                 3330	controller_tb.mem.RM	count=4
#                 3330	controller_tb.mem.RM	READ	DataBus is:0000000000000000	DataHost is:0000000000000000000000000000000000000000000000000000000000000000000000000000000000000000000000000000000000000000000000000000000c	count=5
#                 3335	controller_tb.dut.F.WC	count=5
#                 3335	controller_tb.dut.F.WC	WRITE	DataHost is:0000000000000000	DataBus is:0000000000000000
#                 3340	controller_tb.mem.RM	count=5
#                 3340	controller_tb.mem.RM	READ	DataBus is:0000000000000000	DataHost is:0000000000000000000000000000000000000000000000000000000000000000000000000000000000000000000000000000000000000000000000000000000c	count=6
#                 3345	controller_tb.dut.F.WC	count=6
#                 3345	controller_tb.dut.F.WC	WRITE	DataHost is:0000000000000000	DataBus is:0000000000000000
#                 3350	controller_tb.mem.RM	count=6
#                 3350	controller_tb.mem.RM	READ	DataBus is:0000000000000000	DataHost is:0000000000000000000000000000000000000000000000000000000000000000000000000000000000000000000000000000000000000000000000000000000c	count=7
#                 3355	controller_tb.dut.F.WC	count=7
#                 3355	controller_tb.dut.F.WC	WRITE	DataHost is:0000000000000000	DataBus is:0000000000000000
#                 3360	controller_tb.mem.RM	count=7
#                 3360	controller_tb.dut.F	 STATE: Write
#                 3360	WRITE
